Introduction to Geodata in R
…
]

.panel[.panel-name[raster to data.frame]

We take the smallest (masked) raster. Things can get quite big, so watch out.

```r
df_rr_mask <- as.data.frame(rr_mask, xy = T, na.rm = T)
tibble(df_rr_mask)
```

```
## # A tibble: 93,826 x 3
##        x     y CHELSA_prec_11_V1.2_land
##    <dbl> <dbl>                    <int>
##  1  16.3  46.5                       76
##  2  16.3  46.5                       76
##  3  16.4  46.5                       75
##  4  16.4  46.5                       74
##  5  16.4  46.5                       74
##  6  16.3  46.5                       76
##  7  16.3  46.5                       76
##  8  16.3  46.5                       77
##  9  16.3  46.5                       77
## 10  16.3  46.5                       76
## # ... with 93,816 more rows
```
…
